%YAML 1.1
%TAG !u! tag:unity3d.com,2011:
--- !u!114 &11400000
MonoBehaviour:
  m_ObjectHideFlags: 0
  m_CorrespondingSourceObject: {fileID: 0}
  m_PrefabInstance: {fileID: 0}
  m_PrefabAsset: {fileID: 0}
  m_GameObject: {fileID: 0}
  m_Enabled: 1
  m_EditorHideFlags: 0
  m_Script: {fileID: 11500000, guid: 6625403694b8d51469ee6e3269e60e8e, type: 3}
  m_Name: Level 6
  m_EditorClassIdentifier: 
  categoryVersion: 0
  nameCategory: level6
  quizes:
    _Buckets: 0000000001000000020000000300000004000000ffffffffffffffff
    _HashCodes: 00000000010000000200000003000000040000000000000000000000
    _Next: ffffffffffffffffffffffffffffffffffffffff0000000000000000
    _Count: 5
    _Version: 5
    _FreeList: -1
    _FreeCount: 0
    _Keys: 00000000010000000200000003000000040000000000000000000000
    _Values:
    - id: 0
      answers:
      - answerText: "\u0420\u0435\u043A\u0430"
        rightAnswer: 0
      - answerText: "\u0413\u043E\u0440\u0430"
        rightAnswer: 0
      - answerText: "\u0412\u043E\u0434\u043E\u043F\u0430\u0434"
        rightAnswer: 0
      - answerText: "\u041E\u0437\u0435\u0440\u043E"
        rightAnswer: 1
      quizeText: "\u041A\u0430\u043A\u043E\u0439 \u0433\u0435\u043E\u0433\u0440\u0430\u0444\u0438\u0447\u0435\u0441\u043A\u0438\u0439
        \u043E\u0431\u044A\u0435\u043A\u0442 \u043D\u0430\u0437\u044B\u0432\u0430\u0435\u0442\u0441\u044F
        \u0422\u0438\u0442\u0438\u043A\u0430\u043A\u0430?"
    - id: 1
      answers:
      - answerText: "\u0427\u0435\u0442\u044B\u0440\u0435"
        rightAnswer: 0
      - answerText: "\u0422\u0440\u0438"
        rightAnswer: 0
      - answerText: "\u041E\u0434\u0438\u043D"
        rightAnswer: 0
      - answerText: "\u0414\u0432\u0430"
        rightAnswer: 1
      quizeText: "\u0421\u043A\u043E\u043B\u044C\u043A\u043E \u043A\u0440\u0443\u0433\u043E\u0432
        \u043A\u0440\u043E\u0432\u043E\u043E\u0431\u0440\u0430\u0449\u0435\u043D\u0438\u044F
        \u0443 \u0447\u0435\u043B\u043E\u0432\u0435\u043A\u0430?"
    - id: 2
      answers:
      - answerText: "\u0428\u0432\u0435\u0439\u0446\u0430\u0440\u0438\u044F"
        rightAnswer: 1
      - answerText: "\u041D\u043E\u0440\u0432\u0435\u0433\u0438\u044F"
        rightAnswer: 0
      - answerText: "\u0424\u0438\u043D\u043B\u044F\u043D\u0434\u0438\u044F"
        rightAnswer: 0
      - answerText: "\u0414\u0430\u043D\u0438\u044F"
        rightAnswer: 0
      quizeText: "\u0424\u043B\u0430\u0433 \u043A\u0430\u043A\u043E\u0433\u043E \u0433\u043E\u0441\u0443\u0434\u0430\u0440\u0441\u0442\u0432\u0430
        \u0432\u0437\u044F\u0442 \u0437\u0430 \u043E\u0441\u043D\u043E\u0432\u0443
        \u0441\u0438\u043C\u0432\u043E\u043B\u0430 \"\u041C\u0435\u0436\u0434\u0443\u043D\u0430\u0440\u043E\u0434\u043D\u043E\u0433\u043E
        \u041A\u0440\u0430\u0441\u043D\u043E\u0433\u043E \u041A\u0440\u0435\u0441\u0442\u0430\"?"
    - id: 3
      answers:
      - answerText: "\u041D\u0430\u0434\u0435\u043B\u044B"
        rightAnswer: 0
      - answerText: "\u041E\u0433\u043E\u0440\u043E\u0434\u044B"
        rightAnswer: 0
      - answerText: "\u041D\u0438\u0432\u044B"
        rightAnswer: 0
      - answerText: "\u041F\u043E\u043B\u044F"
        rightAnswer: 1
      quizeText: "\u041A\u0430\u043A \u043D\u0430\u0437\u044B\u0432\u0430\u044E\u0442
        \u043A\u0440\u0430\u044F \u0448\u043B\u044F\u043F\u044B?"
    - id: 4
      answers:
      - answerText: "\u043E\u0440\u0430\u043D\u0436\u0435\u0432\u044B\u0439"
        rightAnswer: 0
      - answerText: "\u0433\u043E\u043B\u0443\u0431\u043E\u0439"
        rightAnswer: 0
      - answerText: "\u0444\u0438\u043E\u043B\u0435\u0442\u043E\u0432\u044B\u0439"
        rightAnswer: 0
      - answerText: "\u043A\u043E\u0440\u0438\u0447\u043D\u0435\u0432\u044B\u0439"
        rightAnswer: 1
      quizeText: "\u041A\u0430\u043A\u043E\u0439 \u0446\u0432\u0435\u0442 \u043E\u0442\u0441\u0443\u0442\u0441\u0442\u0432\u0443\u0435\u0442
        \u0432 \u0440\u0430\u0434\u0443\u0433\u0435?"
    - id: 0
      answers:
      - answerText: 
        rightAnswer: 0
      - answerText: 
        rightAnswer: 0
      - answerText: 
        rightAnswer: 0
      - answerText: 
        rightAnswer: 0
      quizeText: 
    - id: 0
      answers:
      - answerText: 
        rightAnswer: 0
      - answerText: 
        rightAnswer: 0
      - answerText: 
        rightAnswer: 0
      - answerText: 
        rightAnswer: 0
      quizeText: 
