%YAML 1.1
%TAG !u! tag:unity3d.com,2011:
--- !u!114 &11400000
MonoBehaviour:
  m_ObjectHideFlags: 0
  m_CorrespondingSourceObject: {fileID: 0}
  m_PrefabInstance: {fileID: 0}
  m_PrefabAsset: {fileID: 0}
  m_GameObject: {fileID: 0}
  m_Enabled: 1
  m_EditorHideFlags: 0
  m_Script: {fileID: 11500000, guid: abc77607c2a62ef48b8f7dec55cc6d91, type: 3}
  m_Name: AnalyzeRuleData
  m_EditorClassIdentifier: 
  m_RuleToResults:
  - RuleName: Check Duplicate Bundle Dependencies
    Results: []
  - RuleName: Check Resources to Addressable Duplicate Dependencies
    Results:
    - m_ResultName: Check Resources to Addressable Duplicate Dependencies - No issues
        found.
      m_Severity: 0
  - RuleName: Check Scene to Addressable Duplicate Dependencies
    Results:
    - m_ResultName: Assets/Scenes/NewMainScene.unity:localization-assets-en_assets_all.bundle:Assets/CategoriesData/EngList.asset
      m_Severity: 2
    - m_ResultName: Assets/Scenes/NewMainScene.unity:localization-assets-ru-ru_assets_all.bundle:Assets/CategoriesData/RuList.asset
      m_Severity: 2
    - m_ResultName: Assets/Scenes/NewMainScene.unity:localization-assets-en_assets_all.bundle:Assets/CategoriesData/Eng/Sport.asset
      m_Severity: 2
    - m_ResultName: Assets/Scenes/NewMainScene.unity:localization-assets-en_assets_all.bundle:Assets/CategoriesData/Eng/Geography.asset
      m_Severity: 2
    - m_ResultName: Assets/Scenes/NewMainScene.unity:localization-assets-en_assets_all.bundle:Assets/CategoriesData/Eng/Litres.asset
      m_Severity: 2
    - m_ResultName: Assets/Scenes/NewMainScene.unity:localization-assets-en_assets_all.bundle:Assets/CategoriesData/Eng/Mythology.asset
      m_Severity: 2
    - m_ResultName: Assets/Scenes/NewMainScene.unity:localization-assets-en_assets_all.bundle:Assets/Scripts/ScriptableObjects/AllCategories.cs
      m_Severity: 2
    - m_ResultName: Assets/Scenes/NewMainScene.unity:localization-assets-ru-ru_assets_all.bundle:Assets/Scripts/ScriptableObjects/AllCategories.cs
      m_Severity: 2
    - m_ResultName: Assets/Scenes/NewMainScene.unity:localization-assets-en_assets_all.bundle:Assets/CategoriesData/Eng/History.asset
      m_Severity: 2
    - m_ResultName: Assets/Scenes/NewMainScene.unity:localization-assets-en_assets_all.bundle:Assets/CategoriesData/Eng/Animals
        and plants.asset
      m_Severity: 2
    - m_ResultName: Assets/Scenes/NewMainScene.unity:localization-assets-en_assets_all.bundle:Assets/Scripts/ScriptableObjects/Category.cs
      m_Severity: 2
    - m_ResultName: Assets/Scenes/NewMainScene.unity:localization-assets-ru-ru_assets_all.bundle:Assets/Scripts/ScriptableObjects/Category.cs
      m_Severity: 2
    - m_ResultName: Assets/Scenes/NewMainScene.unity:localization-assets-en_assets_all.bundle:Assets/CategoriesData/Eng/Tech.asset
      m_Severity: 2
    - m_ResultName: Assets/Scenes/NewMainScene.unity:localization-assets-en_assets_all.bundle:Assets/CategoriesData/Eng/Music.asset
      m_Severity: 2
    - m_ResultName: Assets/Scenes/NewMainScene.unity:localization-assets-ru-ru_assets_all.bundle:Assets/CategoriesData/RU/Mythology.asset
      m_Severity: 2
    - m_ResultName: Assets/Scenes/NewMainScene.unity:localization-assets-ru-ru_assets_all.bundle:Assets/CategoriesData/RU/History.asset
      m_Severity: 2
    - m_ResultName: Assets/Scenes/NewMainScene.unity:localization-assets-ru-ru_assets_all.bundle:Assets/CategoriesData/RU/Music.asset
      m_Severity: 2
    - m_ResultName: Assets/Scenes/NewMainScene.unity:localization-assets-ru-ru_assets_all.bundle:Assets/CategoriesData/RU/Animals
        and plants.asset
      m_Severity: 2
    - m_ResultName: Assets/Scenes/NewMainScene.unity:localization-assets-ru-ru_assets_all.bundle:Assets/CategoriesData/RU/Sport.asset
      m_Severity: 2
    - m_ResultName: Assets/Scenes/NewMainScene.unity:localization-assets-ru-ru_assets_all.bundle:Assets/CategoriesData/RU/Tech.asset
      m_Severity: 2
    - m_ResultName: Assets/Scenes/NewMainScene.unity:localization-assets-ru-ru_assets_all.bundle:Assets/CategoriesData/RU/Geography.asset
      m_Severity: 2
    - m_ResultName: Assets/Scenes/NewMainScene.unity:localization-assets-ru-ru_assets_all.bundle:Assets/CategoriesData/RU/Litres.asset
      m_Severity: 2
  - RuleName: Bundle Layout Preview
    Results: []
  - RuleName: UnityEditor.AddressableAssets.Build.AnalyzeRules.AnalyzeRule
    Results: []
