%YAML 1.1
%TAG !u! tag:unity3d.com,2011:
--- !u!114 &11400000
MonoBehaviour:
  m_ObjectHideFlags: 0
  m_CorrespondingSourceObject: {fileID: 0}
  m_PrefabInstance: {fileID: 0}
  m_PrefabAsset: {fileID: 0}
  m_GameObject: {fileID: 0}
  m_Enabled: 1
  m_EditorHideFlags: 0
  m_Script: {fileID: 11500000, guid: e9620f8c34305754d8cc9a7e49e852d9, type: 3}
  m_Name: New StringTableCollection_ru-RU
  m_EditorClassIdentifier: 
  m_LocaleId:
    m_Code: ru-RU
  m_SharedData: {fileID: 11400000, guid: b77d8ca54917dbf46bef1385532a8717, type: 2}
  m_Metadata:
    m_Items: []
  m_TableData:
  - m_Id: 13993242624
    m_Localized: "\u0417\u0430\u0433\u0440\u0443\u0437\u043A\u0430 \u0434\u0430\u043D\u043D\u044B\u0445..."
    m_Metadata:
      m_Items: []
  - m_Id: 192133722112
    m_Localized: "\u041F\u0420\u041E\u0425\u041E\u0416\u0414\u0415\u041D\u0418\u0415"
    m_Metadata:
      m_Items: []
  - m_Id: 419037179904
    m_Localized: "\u0421\u0412\u041E\u0411\u041E\u0414\u041D\u042B\u0419 \u0420\u0415\u0416\u0418\u041C"
    m_Metadata:
      m_Items: []
  - m_Id: 12017554419712
    m_Localized: "\u041C\u0423\u0417\u042B\u041A\u0410"
    m_Metadata:
      m_Items: []
  - m_Id: 12070050328576
    m_Localized: "\u0417\u0412\u0423\u041A"
    m_Metadata:
      m_Items: []
  - m_Id: 12109615198208
    m_Localized: "\u0423\u0412\u0415\u0414\u041E\u041C\u041B\u0415\u041D\u0418\u042F"
    m_Metadata:
      m_Items: []
  - m_Id: 12397105377280
    m_Localized: "\u042F\u0417\u042B\u041A"
    m_Metadata:
      m_Items: []
  references:
    version: 1
